#
# A fatal error has been detected by the Java Runtime Environment:
#
#  SIGSEGV (0xb) at pc=0x00007fa80239d197, pid=8952, tid=0x00007fa803a68700
#
# JRE version: OpenJDK Runtime Environment (8.0_151-b12) (build 1.8.0_151-8u151-b12-0ubuntu0.16.04.2-b12)
# Java VM: OpenJDK 64-Bit Server VM (25.151-b12 mixed mode linux-amd64 compressed oops)
# Problematic frame:
# V  [libjvm.so+0x67e197]
#
# Failed to write core dump. Core dumps have been disabled. To enable core dumping, try "ulimit -c unlimited" before starting Java again
#
# If you would like to submit a bug report, please visit:
#   http://bugreport.java.com/bugreport/crash.jsp
#

---------------  T H R E A D  ---------------

Current thread (0x00007fa7fc00b800):  JavaThread "main" [_thread_in_vm, id=8956, stack(0x00007fa803968000,0x00007fa803a69000)]

siginfo: si_signo: 11 (SIGSEGV), si_code: 1 (SEGV_MAPERR), si_addr: 0x0000000000000000

Registers:
RAX=0x00007fa8027e7b50, RBX=0x00007fa7fc00b800, RCX=0x00007fa803a677b0, RDX=0x00007fa7fc008d58
RSP=0x00007fa803a676b0, RBP=0x00007fa803a67770, RSI=0x00007fa803a679a0, RDI=0x00007fa7fc00b800
R8 =0x0000000000000000, R9 =0x00000000000000b3, R10=0x0000000000000023, R11=0x00007fa7b4bfb798
R12=0x00007fa7fc00b9e0, R13=0x0000000000000000, R14=0x00007fa803a679a0, R15=0x00007fa803a677b0
RIP=0x00007fa80239d197, EFLAGS=0x0000000000010206, CSGSFS=0x0000000000000033, ERR=0x0000000000000004
  TRAPNO=0x000000000000000e

Top of Stack: (sp=0x00007fa803a676b0)
0x00007fa803a676b0:   00000000ed1a10d8 00007fa803a679a0
0x00007fa803a676c0:   0000000000000000 0000000000000000
0x00007fa803a676d0:   00007fa7fc00b800 00007fa7fc008d50
0x00007fa803a676e0:   000000000000064d 00007fa8027e7b50
0x00007fa803a676f0:   00007fa80233a57a 0000001ced060101
0x00007fa803a67700:   00007fa8039112a0 00007fa7b4dfc020
0x00007fa803a67710:   0000000000000000 00007fa7e5eb3fe0
0x00007fa803a67720:   00007fa803a679a0 00007fa7fc00b800
0x00007fa803a67730:   00007fa803a67900 42e412cf22167e00
0x00007fa803a67740:   0000000000000005 00007fa7e5eb4028
0x00007fa803a67750:   0000000000000000 00007fa7e5eb3fe0
0x00007fa803a67760:   00007fa803a679a0 00007fa7fc00b800
0x00007fa803a67770:   00007fa803a67880 00007fa7b4bfb85f
0x00007fa803a67780:   2525252525252525 0000000000000000
0x00007fa803a67790:   00007fa803a679a0 00007fa7fc00b9e0
0x00007fa803a677a0:   0000000000000000 0000000000000000
0x00007fa803a677b0:   0000003000000018 00007fa803a67890
0x00007fa803a677c0:   00007fa803a677d0 42e412cf22167e00
0x00007fa803a677d0:   ff00000000000000 0000000000000000
0x00007fa803a677e0:   0000000003a67270 00007fa803a679a0
0x00007fa803a677f0:   0000000000000000 00000000000000b3
0x00007fa803a67800:   0000000000000000 0000000000000000
0x00007fa803a67810:   0000000000000000 42e412cf22167e00
0x00007fa803a67820:   0000000000000000 00007fa7e5eb4028
0x00007fa803a67830:   0000000000000000 00007fa803a679a0
0x00007fa803a67840:   0000000000000000 00007fa803a679a0
0x00007fa803a67850:   00007fa7fc00b9e0 0000000000000000
0x00007fa803a67860:   00000000000000b3 00007fa7b4bfb9b4
0x00007fa803a67870:   00007fa7e5eb4028 00007fa7fc27ac80
0x00007fa803a67880:   00007fa803a67900 00007fa7b4bfb171
0x00007fa803a67890:   00007fa7fc00b800 00007fa7e5eb4028
0x00007fa803a678a0:   00007fa803a67990 00007fa803a67998 

Instructions: (pc=0x00007fa80239d197)
0x00007fa80239d177:   89 9d 60 ff ff ff 48 c7 85 68 ff ff ff 00 00 00
0x00007fa80239d187:   00 74 0c 48 8d bd 60 ff ff ff e8 da f3 28 00 90
0x00007fa80239d197:   49 8b 45 00 c7 85 50 ff ff ff 0c 00 00 00 4c 8d
0x00007fa80239d1a7:   75 80 4c 89 f7 48 8b 40 08 0f b7 50 24 48 8b 40 

Register to memory mapping:

RAX=0x00007fa8027e7b50: <offset 0xac8b50> in /usr/lib/jvm/java-8-openjdk-amd64/jre/lib/amd64/server/libjvm.so at 0x00007fa801d1f000
RBX=0x00007fa7fc00b800 is a thread
RCX=0x00007fa803a677b0 is pointing into the stack for thread: 0x00007fa7fc00b800
RDX=0x00007fa7fc008d58 is an unknown value
RSP=0x00007fa803a676b0 is pointing into the stack for thread: 0x00007fa7fc00b800
RBP=0x00007fa803a67770 is pointing into the stack for thread: 0x00007fa7fc00b800
RSI=0x00007fa803a679a0 is pointing into the stack for thread: 0x00007fa7fc00b800
RDI=0x00007fa7fc00b800 is a thread
R8 =0x0000000000000000 is an unknown value
R9 =0x00000000000000b3 is an unknown value
R10=0x0000000000000023 is an unknown value
R11=0x00007fa7b4bfb798: _ZN7JNIEnv_16CallObjectMethodEP8_jobjectP10_jmethodIDz+0 in /home/brunoj/Desktop/PWR/semestr7/JNI/src/mynative.so at 0x00007fa7b4bfa000
R12=0x00007fa7fc00b9e0 is an unknown value
R13=0x0000000000000000 is an unknown value
R14=0x00007fa803a679a0 is pointing into the stack for thread: 0x00007fa7fc00b800
R15=0x00007fa803a677b0 is pointing into the stack for thread: 0x00007fa7fc00b800


Stack: [0x00007fa803968000,0x00007fa803a69000],  sp=0x00007fa803a676b0,  free space=1021k
Native frames: (J=compiled Java code, j=interpreted, Vv=VM code, C=native code)
V  [libjvm.so+0x67e197]
C  [mynative.so+0x185f]  JNIEnv_::CallObjectMethod(_jobject*, _jmethodID*, ...)+0xc7
C  [mynative.so+0x1171]  Java_HelloWorld_multi01+0x142
j  HelloWorld.multi01([D[D)D+0
j  HelloWorld.main([Ljava/lang/String;)V+81
v  ~StubRoutines::call_stub
V  [libjvm.so+0x66287b]
V  [libjvm.so+0x68452e]
V  [libjvm.so+0x686e5f]
C  [libjli.so+0x3552]
C  [libjli.so+0x73dd]
C  [libpthread.so.0+0x76ba]  start_thread+0xca

Java frames: (J=compiled Java code, j=interpreted, Vv=VM code)
j  HelloWorld.multi01([D[D)D+0
j  HelloWorld.main([Ljava/lang/String;)V+81
v  ~StubRoutines::call_stub

---------------  P R O C E S S  ---------------

Java Threads: ( => current thread )
  0x00007fa7fc3c4800 JavaThread "AWT-EventQueue-0" [_thread_blocked, id=8992, stack(0x00007fa7ae16a000,0x00007fa7ae26b000)]
  0x00007fa7fc36e000 JavaThread "AWT-Shutdown" [_thread_blocked, id=8991, stack(0x00007fa7ae47e000,0x00007fa7ae57f000)]
  0x00007fa7fc308000 JavaThread "AWT-XAWT" daemon [_thread_in_native, id=8989, stack(0x00007fa7ae77f000,0x00007fa7ae880000)]
  0x00007fa7fc2d1000 JavaThread "Java2D Disposer" daemon [_thread_blocked, id=8988, stack(0x00007fa7b4083000,0x00007fa7b4184000)]
  0x00007fa7fc268800 JavaThread "Service Thread" daemon [_thread_blocked, id=8983, stack(0x00007fa7b7eff000,0x00007fa7b8000000)]
  0x00007fa7fc24c000 JavaThread "C1 CompilerThread2" daemon [_thread_blocked, id=8982, stack(0x00007fa7e4240000,0x00007fa7e4341000)]
  0x00007fa7fc247000 JavaThread "C2 CompilerThread1" daemon [_thread_blocked, id=8981, stack(0x00007fa7e4341000,0x00007fa7e4442000)]
  0x00007fa7fc245800 JavaThread "C2 CompilerThread0" daemon [_thread_blocked, id=8980, stack(0x00007fa7e4442000,0x00007fa7e4543000)]
  0x00007fa7fc244000 JavaThread "Monitor Ctrl-Break" daemon [_thread_in_native, id=8979, stack(0x00007fa7e4543000,0x00007fa7e4644000)]
  0x00007fa7fc174800 JavaThread "Signal Dispatcher" daemon [_thread_blocked, id=8973, stack(0x00007fa7e4697000,0x00007fa7e4798000)]
  0x00007fa7fc14c000 JavaThread "Finalizer" daemon [_thread_blocked, id=8970, stack(0x00007fa7e4ba1000,0x00007fa7e4ca2000)]
  0x00007fa7fc147800 JavaThread "Reference Handler" daemon [_thread_blocked, id=8968, stack(0x00007fa7e4ca2000,0x00007fa7e4da3000)]
=>0x00007fa7fc00b800 JavaThread "main" [_thread_in_vm, id=8956, stack(0x00007fa803968000,0x00007fa803a69000)]

Other Threads:
  0x00007fa7fc140000 VMThread [stack: 0x00007fa7e4da3000,0x00007fa7e4ea4000] [id=8966]
  0x00007fa7fc26b000 WatcherThread [stack: 0x00007fa7b7dfe000,0x00007fa7b7eff000] [id=8984]

VM state:synchronizing (normal execution)

VM Mutex/Monitor currently owned by a thread:  ([mutex/lock_event])
[0x00007fa7fc007bc0] Threads_lock - owner thread: 0x00007fa7fc140000

Heap:
 PSYoungGen      total 17920K, used 10815K [0x00000000ec780000, 0x00000000edb80000, 0x0000000100000000)
  eden space 15360K, 70% used [0x00000000ec780000,0x00000000ed20fdc8,0x00000000ed680000)
  from space 2560K, 0% used [0x00000000ed900000,0x00000000ed900000,0x00000000edb80000)
  to   space 2560K, 0% used [0x00000000ed680000,0x00000000ed680000,0x00000000ed900000)
 ParOldGen       total 40960K, used 0K [0x00000000c5600000, 0x00000000c7e00000, 0x00000000ec780000)
  object space 40960K, 0% used [0x00000000c5600000,0x00000000c5600000,0x00000000c7e00000)
 Metaspace       used 11026K, capacity 11264K, committed 11392K, reserved 1058816K
  class space    used 1257K, capacity 1343K, committed 1408K, reserved 1048576K

Card table byte_map: [0x00007fa80000c000,0x00007fa8001e2000] byte_map_base: 0x00007fa7ff9e1000

Marking Bits: (ParMarkBitMap*) 0x00007fa802c402c0
 Begin Bits: [0x00007fa7e62b0000, 0x00007fa7e7158000)
 End Bits:   [0x00007fa7e7158000, 0x00007fa7e8000000)

Polling page: 0x00007fa803a93000

CodeCache: size=245760Kb used=2089Kb max_used=2097Kb free=243671Kb
 bounds [0x00007fa7ed000000, 0x00007fa7ed270000, 0x00007fa7fc000000]
 total_blobs=967 nmethods=448 adapters=435
 compilation: enabled

Compilation events (10 events):
Event: 14,658 Thread 0x00007fa7fc24c000 nmethod 440 0x00007fa7ed208710 code [0x00007fa7ed208880, 0x00007fa7ed208a18]
Event: 14,658 Thread 0x00007fa7fc24c000  445       3       java.lang.Long::compareTo (9 bytes)
Event: 14,658 Thread 0x00007fa7fc24c000 nmethod 445 0x00007fa7ed208ad0 code [0x00007fa7ed208c60, 0x00007fa7ed2090b0]
Event: 14,658 Thread 0x00007fa7fc24c000  446       3       java.awt.Component::getFont_NoClientCode (29 bytes)
Event: 14,659 Thread 0x00007fa7fc24c000 nmethod 446 0x00007fa7ed2091d0 code [0x00007fa7ed209360, 0x00007fa7ed209788]
Event: 14,659 Thread 0x00007fa7fc24c000  447       3       java.lang.Long::valueOf (36 bytes)
Event: 14,660 Thread 0x00007fa7fc245800 nmethod 443 0x00007fa7ed20c7d0 code [0x00007fa7ed20c940, 0x00007fa7ed20cc58]
Event: 14,660 Thread 0x00007fa7fc24c000 nmethod 447 0x00007fa7ed20c110 code [0x00007fa7ed20c2a0, 0x00007fa7ed20c610]
Event: 14,660 Thread 0x00007fa7fc24c000  448       1       java.util.HashMap::size (5 bytes)
Event: 14,661 Thread 0x00007fa7fc24c000 nmethod 448 0x00007fa7ed20be50 code [0x00007fa7ed20bfa0, 0x00007fa7ed20c0b0]

GC Heap History (0 events):
No events

Deoptimization events (5 events):
Event: 10,952 Thread 0x00007fa7fc00b800 Uncommon trap: reason=null_check action=make_not_entrant pc=0x00007fa7ed177c04 method=java.lang.String.equals(Ljava/lang/Object;)Z @ 8
Event: 13,354 Thread 0x00007fa7fc00b800 Uncommon trap: reason=class_check action=maybe_recompile pc=0x00007fa7ed1ae1f0 method=java.lang.String.equals(Ljava/lang/Object;)Z @ 8
Event: 13,388 Thread 0x00007fa7fc00b800 Uncommon trap: reason=class_check action=maybe_recompile pc=0x00007fa7ed1ae1f0 method=java.lang.String.equals(Ljava/lang/Object;)Z @ 8
Event: 14,627 Thread 0x00007fa7fc00b800 Uncommon trap: reason=class_check action=maybe_recompile pc=0x00007fa7ed1ae1f0 method=java.lang.String.equals(Ljava/lang/Object;)Z @ 8
Event: 14,627 Thread 0x00007fa7fc00b800 Uncommon trap: reason=class_check action=maybe_recompile pc=0x00007fa7ed1ae1f0 method=java.lang.String.equals(Ljava/lang/Object;)Z @ 8

Internal exceptions (10 events):
Event: 5,157 Thread 0x00007fa7fc00b800 Exception <a 'java/security/PrivilegedActionException'> (0x00000000ec9d7840) thrown at [/build/openjdk-8-W2Qe27/openjdk-8-8u151-b12/src/hotspot/src/share/vm/prims/jvm.cpp, line 1390]
Event: 5,158 Thread 0x00007fa7fc00b800 Exception <a 'java/security/PrivilegedActionException'> (0x00000000ec9d8318) thrown at [/build/openjdk-8-W2Qe27/openjdk-8-8u151-b12/src/hotspot/src/share/vm/prims/jvm.cpp, line 1390]
Event: 5,158 Thread 0x00007fa7fc00b800 Exception <a 'java/security/PrivilegedActionException'> (0x00000000ec9d8528) thrown at [/build/openjdk-8-W2Qe27/openjdk-8-8u151-b12/src/hotspot/src/share/vm/prims/jvm.cpp, line 1390]
Event: 6,536 Thread 0x00007fa7fc00b800 Exception <a 'java/lang/NoSuchFieldError': method resolution failed> (0x00000000ecb0e1c0) thrown at [/build/openjdk-8-W2Qe27/openjdk-8-8u151-b12/src/hotspot/src/share/vm/prims/methodHandles.cpp, line 1146]
Event: 6,538 Thread 0x00007fa7fc00b800 Exception <a 'java/lang/NoSuchFieldError': method resolution failed> (0x00000000ecb1c438) thrown at [/build/openjdk-8-W2Qe27/openjdk-8-8u151-b12/src/hotspot/src/share/vm/prims/methodHandles.cpp, line 1146]
Event: 7,031 Thread 0x00007fa7fc00b800 Exception <a 'java/io/FileNotFoundException'> (0x00000000ecbc1b28) thrown at [/build/openjdk-8-W2Qe27/openjdk-8-8u151-b12/src/hotspot/src/share/vm/prims/jni.cpp, line 709]
Event: 7,031 Thread 0x00007fa7fc00b800 Exception <a 'java/io/FileNotFoundException'> (0x00000000ecbc2518) thrown at [/build/openjdk-8-W2Qe27/openjdk-8-8u151-b12/src/hotspot/src/share/vm/prims/jni.cpp, line 709]
Event: 7,669 Thread 0x00007fa7fc00b800 Exception <a 'java/lang/ClassNotFoundException': sun/dc/DuctusRenderingEngine> (0x00000000ecc3d798) thrown at [/build/openjdk-8-W2Qe27/openjdk-8-8u151-b12/src/hotspot/src/share/vm/classfile/systemDictionary.cpp, line 210]
Event: 10,952 Thread 0x00007fa7fc00b800 Implicit null exception at 0x00007fa7ed177a22 to 0x00007fa7ed177bf5
Event: 14,662 Thread 0x00007fa7fc00b800 Exception <a 'java/lang/NoSuchMethodError': infoBox> (0x00000000ed1a10d8) thrown at [/build/openjdk-8-W2Qe27/openjdk-8-8u151-b12/src/hotspot/src/share/vm/prims/jni.cpp, line 1613]

Events (10 events):
Event: 14,661 loading class sun/awt/image/SunVolatileImage done
Event: 14,661 loading class java/awt/Image$1
Event: 14,661 loading class sun/awt/image/SurfaceManager$ImageAccessor
Event: 14,661 loading class sun/awt/image/SurfaceManager$ImageAccessor done
Event: 14,661 loading class java/awt/Image$1 done
Event: 14,661 loading class sun/awt/image/SurfaceManager
Event: 14,661 loading class sun/awt/image/SurfaceManager done
Event: 14,662 loading class sun/awt/image/BufferedImageGraphicsConfig
Event: 14,662 loading class sun/awt/image/BufferedImageGraphicsConfig done
Event: 14,662 loading class sun/print/PrinterGraphicsConfig


Dynamic libraries:
00400000-00401000 r-xp 00000000 08:06 8128830                            /usr/lib/jvm/java-8-openjdk-amd64/jre/bin/java
00600000-00601000 r--p 00000000 08:06 8128830                            /usr/lib/jvm/java-8-openjdk-amd64/jre/bin/java
00601000-00602000 rw-p 00001000 08:06 8128830                            /usr/lib/jvm/java-8-openjdk-amd64/jre/bin/java
01051000-01072000 rw-p 00000000 00:00 0                                  [heap]
c5600000-c7e00000 rw-p 00000000 00:00 0 
c7e00000-ec780000 ---p 00000000 00:00 0 
ec780000-edb80000 rw-p 00000000 00:00 0 
edb80000-100000000 ---p 00000000 00:00 0 
100000000-100160000 rw-p 00000000 00:00 0 
100160000-140000000 ---p 00000000 00:00 0 
7fa794000000-7fa794021000 rw-p 00000000 00:00 0 
7fa794021000-7fa798000000 ---p 00000000 00:00 0 
7fa79c000000-7fa79c021000 rw-p 00000000 00:00 0 
7fa79c021000-7fa7a0000000 ---p 00000000 00:00 0 
7fa7a0000000-7fa7a0021000 rw-p 00000000 00:00 0 
7fa7a0021000-7fa7a4000000 ---p 00000000 00:00 0 
7fa7a4000000-7fa7a4021000 rw-p 00000000 00:00 0 
7fa7a4021000-7fa7a8000000 ---p 00000000 00:00 0 
7fa7a8000000-7fa7a8021000 rw-p 00000000 00:00 0 
7fa7a8021000-7fa7ac000000 ---p 00000000 00:00 0 
7fa7ae16a000-7fa7ae16d000 ---p 00000000 00:00 0 
7fa7ae16d000-7fa7ae26b000 rw-p 00000000 00:00 0 
7fa7ae26b000-7fa7ae27c000 r-xp 00000000 08:06 7999952                    /usr/lib/jvm/java-8-openjdk-amd64/jre/lib/amd64/libnio.so
7fa7ae27c000-7fa7ae47c000 ---p 00011000 08:06 7999952                    /usr/lib/jvm/java-8-openjdk-amd64/jre/lib/amd64/libnio.so
7fa7ae47c000-7fa7ae47d000 r--p 00011000 08:06 7999952                    /usr/lib/jvm/java-8-openjdk-amd64/jre/lib/amd64/libnio.so
7fa7ae47d000-7fa7ae47e000 rw-p 00012000 08:06 7999952                    /usr/lib/jvm/java-8-openjdk-amd64/jre/lib/amd64/libnio.so
7fa7ae47e000-7fa7ae481000 ---p 00000000 00:00 0 
7fa7ae481000-7fa7ae73f000 rw-p 00000000 00:00 0 
7fa7ae73f000-7fa7ae77f000 ---p 00000000 00:00 0 
7fa7ae77f000-7fa7ae782000 ---p 00000000 00:00 0 
7fa7ae782000-7fa7ae880000 rw-p 00000000 00:00 0 
7fa7ae880000-7fa7ae885000 r-xp 00000000 08:06 7873041                    /usr/lib/x86_64-linux-gnu/libXfixes.so.3.1.0
7fa7ae885000-7fa7aea84000 ---p 00005000 08:06 7873041                    /usr/lib/x86_64-linux-gnu/libXfixes.so.3.1.0
7fa7aea84000-7fa7aea85000 r--p 00004000 08:06 7873041                    /usr/lib/x86_64-linux-gnu/libXfixes.so.3.1.0
7fa7aea85000-7fa7aea86000 rw-p 00005000 08:06 7873041                    /usr/lib/x86_64-linux-gnu/libXfixes.so.3.1.0
7fa7aea86000-7fa7aea8f000 r-xp 00000000 08:06 7873033                    /usr/lib/x86_64-linux-gnu/libXcursor.so.1.0.2
7fa7aea8f000-7fa7aec8e000 ---p 00009000 08:06 7873033                    /usr/lib/x86_64-linux-gnu/libXcursor.so.1.0.2
7fa7aec8e000-7fa7aec8f000 r--p 00008000 08:06 7873033                    /usr/lib/x86_64-linux-gnu/libXcursor.so.1.0.2
7fa7aec8f000-7fa7aec90000 rw-p 00009000 08:06 7873033                    /usr/lib/x86_64-linux-gnu/libXcursor.so.1.0.2
7fa7aec90000-7fa7aecb4000 r-xp 00000000 08:06 7082280                    /lib/x86_64-linux-gnu/libpng12.so.0.54.0
7fa7aecb4000-7fa7aeeb3000 ---p 00024000 08:06 7082280                    /lib/x86_64-linux-gnu/libpng12.so.0.54.0
7fa7aeeb3000-7fa7aeeb4000 r--p 00023000 08:06 7082280                    /lib/x86_64-linux-gnu/libpng12.so.0.54.0
7fa7aeeb4000-7fa7aeeb5000 rw-p 00024000 08:06 7082280                    /lib/x86_64-linux-gnu/libpng12.so.0.54.0
7fa7aeeb5000-7fa7aef59000 r-xp 00000000 08:06 7865081                    /usr/lib/x86_64-linux-gnu/libfreetype.so.6.12.1
7fa7aef59000-7fa7af158000 ---p 000a4000 08:06 7865081                    /usr/lib/x86_64-linux-gnu/libfreetype.so.6.12.1
7fa7af158000-7fa7af15e000 r--p 000a3000 08:06 7865081                    /usr/lib/x86_64-linux-gnu/libfreetype.so.6.12.1
7fa7af15e000-7fa7af15f000 rw-p 000a9000 08:06 7865081                    /usr/lib/x86_64-linux-gnu/libfreetype.so.6.12.1
7fa7af15f000-7fa7af1b1000 r-xp 00000000 08:06 7999930                    /usr/lib/jvm/java-8-openjdk-amd64/jre/lib/amd64/libfontmanager.so
7fa7af1b1000-7fa7af3b1000 ---p 00052000 08:06 7999930                    /usr/lib/jvm/java-8-openjdk-amd64/jre/lib/amd64/libfontmanager.so
7fa7af3b1000-7fa7af3b3000 r--p 00052000 08:06 7999930                    /usr/lib/jvm/java-8-openjdk-amd64/jre/lib/amd64/libfontmanager.so
7fa7af3b3000-7fa7af3b4000 rw-p 00054000 08:06 7999930                    /usr/lib/jvm/java-8-openjdk-amd64/jre/lib/amd64/libfontmanager.so
7fa7af3b4000-7fa7af3b9000 r-xp 00000000 08:06 7868951                    /usr/lib/x86_64-linux-gnu/libXdmcp.so.6.0.0
7fa7af3b9000-7fa7af5b8000 ---p 00005000 08:06 7868951                    /usr/lib/x86_64-linux-gnu/libXdmcp.so.6.0.0
7fa7af5b8000-7fa7af5b9000 r--p 00004000 08:06 7868951                    /usr/lib/x86_64-linux-gnu/libXdmcp.so.6.0.0
7fa7af5b9000-7fa7af5ba000 rw-p 00005000 08:06 7868951                    /usr/lib/x86_64-linux-gnu/libXdmcp.so.6.0.0
7fa7af5ba000-7fa7af5bc000 r-xp 00000000 08:06 7873026                    /usr/lib/x86_64-linux-gnu/libXau.so.6.0.0
7fa7af5bc000-7fa7af7bc000 ---p 00002000 08:06 7873026                    /usr/lib/x86_64-linux-gnu/libXau.so.6.0.0
7fa7af7bc000-7fa7af7bd000 r--p 00002000 08:06 7873026                    /usr/lib/x86_64-linux-gnu/libXau.so.6.0.0
7fa7af7bd000-7fa7af7be000 rw-p 00003000 08:06 7873026                    /usr/lib/x86_64-linux-gnu/libXau.so.6.0.0
7fa7af7be000-7fa7af7df000 r-xp 00000000 08:06 7868953                    /usr/lib/x86_64-linux-gnu/libxcb.so.1.1.0
7fa7af7df000-7fa7af9de000 ---p 00021000 08:06 7868953                    /usr/lib/x86_64-linux-gnu/libxcb.so.1.1.0
7fa7af9de000-7fa7af9df000 r--p 00020000 08:06 7868953                    /usr/lib/x86_64-linux-gnu/libxcb.so.1.1.0
7fa7af9df000-7fa7af9e0000 rw-p 00021000 08:06 7868953                    /usr/lib/x86_64-linux-gnu/libxcb.so.1.1.0
7fa7af9e0000-7fa7af9ef000 r-xp 00000000 08:06 7865660                    /usr/lib/x86_64-linux-gnu/libXi.so.6.1.0
7fa7af9ef000-7fa7afbee000 ---p 0000f000 08:06 7865660                    /usr/lib/x86_64-linux-gnu/libXi.so.6.1.0
7fa7afbee000-7fa7afbef000 r--p 0000e000 08:06 7865660                    /usr/lib/x86_64-linux-gnu/libXi.so.6.1.0
7fa7afbef000-7fa7afbf0000 rw-p 0000f000 08:06 7865660                    /usr/lib/x86_64-linux-gnu/libXi.so.6.1.0
7fa7afbf0000-7fa7afbf5000 r-xp 00000000 08:06 7873065                    /usr/lib/x86_64-linux-gnu/libXtst.so.6.1.0
7fa7afbf5000-7fa7afdf4000 ---p 00005000 08:06 7873065                    /usr/lib/x86_64-linux-gnu/libXtst.so.6.1.0
7fa7afdf4000-7fa7afdf5000 r--p 00004000 08:06 7873065                    /usr/lib/x86_64-linux-gnu/libXtst.so.6.1.0
7fa7afdf5000-7fa7afdf6000 rw-p 00005000 08:06 7873065                    /usr/lib/x86_64-linux-gnu/libXtst.so.6.1.0
7fa7afdf6000-7fa7afdff000 r-xp 00000000 08:06 7873059                    /usr/lib/x86_64-linux-gnu/libXrender.so.1.3.0
7fa7afdff000-7fa7afffe000 ---p 00009000 08:06 7873059                    /usr/lib/x86_64-linux-gnu/libXrender.so.1.3.0
7fa7afffe000-7fa7affff000 r--p 00008000 08:06 7873059                    /usr/lib/x86_64-linux-gnu/libXrender.so.1.3.0
7fa7affff000-7fa7b0000000 rw-p 00009000 08:06 7873059                    /usr/lib/x86_64-linux-gnu/libXrender.so.1.3.0
7fa7b0000000-7fa7b0021000 rw-p 00000000 00:00 0 
7fa7b0021000-7fa7b4000000 ---p 00000000 00:00 0 
7fa7b4083000-7fa7b4086000 ---p 00000000 00:00 0 
7fa7b4086000-7fa7b4184000 rw-p 00000000 00:00 0 
7fa7b4184000-7fa7b42b9000 r-xp 00000000 08:06 7873022                    /usr/lib/x86_64-linux-gnu/libX11.so.6.3.0
7fa7b42b9000-7fa7b44b9000 ---p 00135000 08:06 7873022                    /usr/lib/x86_64-linux-gnu/libX11.so.6.3.0
7fa7b44b9000-7fa7b44ba000 r--p 00135000 08:06 7873022                    /usr/lib/x86_64-linux-gnu/libX11.so.6.3.0
7fa7b44ba000-7fa7b44be000 rw-p 00136000 08:06 7873022                    /usr/lib/x86_64-linux-gnu/libX11.so.6.3.0
7fa7b44be000-7fa7b44cf000 r-xp 00000000 08:06 7873039                    /usr/lib/x86_64-linux-gnu/libXext.so.6.4.0
7fa7b44cf000-7fa7b46ce000 ---p 00011000 08:06 7873039                    /usr/lib/x86_64-linux-gnu/libXext.so.6.4.0
7fa7b46ce000-7fa7b46cf000 r--p 00010000 08:06 7873039                    /usr/lib/x86_64-linux-gnu/libXext.so.6.4.0
7fa7b46cf000-7fa7b46d0000 rw-p 00011000 08:06 7873039                    /usr/lib/x86_64-linux-gnu/libXext.so.6.4.0
7fa7b46d0000-7fa7b4724000 r-xp 00000000 08:06 7999931                    /usr/lib/jvm/java-8-openjdk-amd64/jre/lib/amd64/libawt_xawt.so
7fa7b4724000-7fa7b4924000 ---p 00054000 08:06 7999931                    /usr/lib/jvm/java-8-openjdk-amd64/jre/lib/amd64/libawt_xawt.so
7fa7b4924000-7fa7b4925000 r--p 00054000 08:06 7999931                    /usr/lib/jvm/java-8-openjdk-amd64/jre/lib/amd64/libawt_xawt.so
7fa7b4925000-7fa7b4928000 rw-p 00055000 08:06 7999931                    /usr/lib/jvm/java-8-openjdk-amd64/jre/lib/amd64/libawt_xawt.so
7fa7b4928000-7fa7b4929000 rw-p 00000000 00:00 0 
7fa7b4929000-7fa7b49c9000 r-xp 00000000 08:06 7999945                    /usr/lib/jvm/java-8-openjdk-amd64/jre/lib/amd64/libawt.so
7fa7b49c9000-7fa7b4bc9000 ---p 000a0000 08:06 7999945                    /usr/lib/jvm/java-8-openjdk-amd64/jre/lib/amd64/libawt.so
7fa7b4bc9000-7fa7b4bca000 r--p 000a0000 08:06 7999945                    /usr/lib/jvm/java-8-openjdk-amd64/jre/lib/amd64/libawt.so
7fa7b4bca000-7fa7b4bd5000 rw-p 000a1000 08:06 7999945                    /usr/lib/jvm/java-8-openjdk-amd64/jre/lib/amd64/libawt.so
7fa7b4bd5000-7fa7b4bfa000 rw-p 00000000 00:00 0 
7fa7b4bfa000-7fa7b4bfc000 r-xp 00000000 08:06 5920483                    /home/brunoj/Desktop/PWR/semestr7/JNI/src/mynative.so
7fa7b4bfc000-7fa7b4dfb000 ---p 00002000 08:06 5920483                    /home/brunoj/Desktop/PWR/semestr7/JNI/src/mynative.so
7fa7b4dfb000-7fa7b4dfc000 r--p 00001000 08:06 5920483                    /home/brunoj/Desktop/PWR/semestr7/JNI/src/mynative.so
7fa7b4dfc000-7fa7b4dfd000 rw-p 00002000 08:06 5920483                    /home/brunoj/Desktop/PWR/semestr7/JNI/src/mynative.so
7fa7b4dfd000-7fa7b7dfe000 rw-p 00000000 00:00 0 
7fa7b7dfe000-7fa7b7dff000 ---p 00000000 00:00 0 
7fa7b7dff000-7fa7b7eff000 rw-p 00000000 00:00 0 
7fa7b7eff000-7fa7b7f02000 ---p 00000000 00:00 0 
7fa7b7f02000-7fa7b8000000 rw-p 00000000 00:00 0 
7fa7b8000000-7fa7b80e7000 rw-p 00000000 00:00 0 
7fa7b80e7000-7fa7bc000000 ---p 00000000 00:00 0 
7fa7bc000000-7fa7bc1bc000 rw-p 00000000 00:00 0 
7fa7bc1bc000-7fa7c0000000 ---p 00000000 00:00 0 
7fa7c0000000-7fa7c0021000 rw-p 00000000 00:00 0 
7fa7c0021000-7fa7c4000000 ---p 00000000 00:00 0 
7fa7c4000000-7fa7c4132000 rw-p 00000000 00:00 0 
7fa7c4132000-7fa7c8000000 ---p 00000000 00:00 0 
7fa7c8000000-7fa7c8021000 rw-p 00000000 00:00 0 
7fa7c8021000-7fa7cc000000 ---p 00000000 00:00 0 
7fa7cc000000-7fa7cc021000 rw-p 00000000 00:00 0 
7fa7cc021000-7fa7d0000000 ---p 00000000 00:00 0 
7fa7d0000000-7fa7d0021000 rw-p 00000000 00:00 0 
7fa7d0021000-7fa7d4000000 ---p 00000000 00:00 0 
7fa7d4000000-7fa7d4021000 rw-p 00000000 00:00 0 
7fa7d4021000-7fa7d8000000 ---p 00000000 00:00 0 
7fa7d8000000-7fa7d8021000 rw-p 00000000 00:00 0 
7fa7d8021000-7fa7dc000000 ---p 00000000 00:00 0 
7fa7dc000000-7fa7dc021000 rw-p 00000000 00:00 0 
7fa7dc021000-7fa7e0000000 ---p 00000000 00:00 0 
7fa7e0000000-7fa7e0021000 rw-p 00000000 00:00 0 
7fa7e0021000-7fa7e4000000 ---p 00000000 00:00 0 
7fa7e4028000-7fa7e403f000 r-xp 00000000 08:06 7999940                    /usr/lib/jvm/java-8-openjdk-amd64/jre/lib/amd64/libnet.so
7fa7e403f000-7fa7e423e000 ---p 00017000 08:06 7999940                    /usr/lib/jvm/java-8-openjdk-amd64/jre/lib/amd64/libnet.so
7fa7e423e000-7fa7e423f000 r--p 00016000 08:06 7999940                    /usr/lib/jvm/java-8-openjdk-amd64/jre/lib/amd64/libnet.so
7fa7e423f000-7fa7e4240000 rw-p 00017000 08:06 7999940                    /usr/lib/jvm/java-8-openjdk-amd64/jre/lib/amd64/libnet.so
7fa7e4240000-7fa7e4243000 ---p 00000000 00:00 0 
7fa7e4243000-7fa7e4341000 rw-p 00000000 00:00 0 
7fa7e4341000-7fa7e4344000 ---p 00000000 00:00 0 
7fa7e4344000-7fa7e4442000 rw-p 00000000 00:00 0 
7fa7e4442000-7fa7e4445000 ---p 00000000 00:00 0 
7fa7e4445000-7fa7e4543000 rw-p 00000000 00:00 0 
7fa7e4543000-7fa7e4546000 ---p 00000000 00:00 0 
7fa7e4546000-7fa7e4644000 rw-p 00000000 00:00 0 
7fa7e4644000-7fa7e4646000 r--s 0001a000 08:06 7371136                    /home/brunoj/.local/share/JetBrains/Toolbox/apps/IDEA-C/ch-0/172.4343.14/lib/idea_rt.jar
7fa7e4646000-7fa7e4659000 r--s 00346000 08:06 7999959                    /usr/lib/jvm/java-8-openjdk-amd64/jre/lib/resources.jar
7fa7e4659000-7fa7e465e000 r--s 0009a000 08:06 7999960                    /usr/lib/jvm/java-8-openjdk-amd64/jre/lib/jsse.jar
7fa7e465e000-7fa7e4661000 r--s 00015000 08:06 7999915                    /usr/lib/jvm/java-8-openjdk-amd64/jre/lib/jce.jar
7fa7e4661000-7fa7e467c000 r--s 001d6000 08:06 8128786                    /usr/lib/jvm/java-8-openjdk-amd64/jre/lib/ext/nashorn.jar
7fa7e467c000-7fa7e4697000 r--s 00394000 08:06 8128784                    /usr/lib/jvm/java-8-openjdk-amd64/jre/lib/ext/cldrdata.jar
7fa7e4697000-7fa7e469a000 ---p 00000000 00:00 0 
7fa7e469a000-7fa7e4798000 rw-p 00000000 00:00 0 
7fa7e4798000-7fa7e4ba1000 r--p 00000000 08:06 7868561                    /usr/lib/locale/locale-archive
7fa7e4ba1000-7fa7e4ba4000 ---p 00000000 00:00 0 
7fa7e4ba4000-7fa7e4ca2000 rw-p 00000000 00:00 0 
7fa7e4ca2000-7fa7e4ca5000 ---p 00000000 00:00 0 
7fa7e4ca5000-7fa7e4da3000 rw-p 00000000 00:00 0 
7fa7e4da3000-7fa7e4da4000 ---p 00000000 00:00 0 
7fa7e4da4000-7fa7e8000000 rw-p 00000000 00:00 0 
7fa7e8000000-7fa7e8021000 rw-p 00000000 00:00 0 
7fa7e8021000-7fa7ec000000 ---p 00000000 00:00 0 
7fa7ec000000-7fa7ec005000 r--s 002f9000 08:06 7999958                    /usr/lib/jvm/java-8-openjdk-amd64/jre/lib/charsets.jar
7fa7ec005000-7fa7ec00b000 r--s 0003a000 08:06 8128787                    /usr/lib/jvm/java-8-openjdk-amd64/jre/lib/ext/sunjce_provider.jar
7fa7ec00b000-7fa7ec00e000 r--s 0000f000 08:06 8128214                    /usr/lib/jvm/java-8-openjdk-amd64/jre/lib/ext/icedtea-sound.jar
7fa7ec00e000-7fa7ec35f000 rw-p 00000000 00:00 0 
7fa7ec35f000-7fa7ec52e000 r--s 03c21000 08:06 7999913                    /usr/lib/jvm/java-8-openjdk-amd64/jre/lib/rt.jar
7fa7ec52e000-7fa7ec703000 rw-p 00000000 00:00 0 
7fa7ec703000-7fa7ec704000 ---p 00000000 00:00 0 
7fa7ec704000-7fa7ec804000 rw-p 00000000 00:00 0 
7fa7ec804000-7fa7ec805000 ---p 00000000 00:00 0 
7fa7ec805000-7fa7ec905000 rw-p 00000000 00:00 0 
7fa7ec905000-7fa7ec906000 ---p 00000000 00:00 0 
7fa7ec906000-7fa7eca06000 rw-p 00000000 00:00 0 
7fa7eca06000-7fa7eca07000 ---p 00000000 00:00 0 
7fa7eca07000-7fa7ecb1b000 rw-p 00000000 00:00 0 
7fa7ecb1b000-7fa7ecc40000 ---p 00000000 00:00 0 
7fa7ecc40000-7fa7ecc4a000 rw-p 00000000 00:00 0 
7fa7ecc4a000-7fa7ed000000 ---p 00000000 00:00 0 
7fa7ed000000-7fa7ed270000 rwxp 00000000 00:00 0 
7fa7ed270000-7fa7fc000000 ---p 00000000 00:00 0 
7fa7fc000000-7fa7fc3dc000 rw-p 00000000 00:00 0 
7fa7fc3dc000-7fa800000000 ---p 00000000 00:00 0 
7fa800000000-7fa800002000 r--s 00008000 08:06 8128821                    /usr/lib/jvm/java-8-openjdk-amd64/jre/lib/ext/sunec.jar
7fa800002000-7fa80000c000 r--s 00116000 08:06 8128823                    /usr/lib/jvm/java-8-openjdk-amd64/jre/lib/ext/localedata.jar
7fa80000c000-7fa800020000 rw-p 00000000 00:00 0 
7fa800020000-7fa800144000 ---p 00000000 00:00 0 
7fa800144000-7fa80014f000 rw-p 00000000 00:00 0 
7fa80014f000-7fa8001e1000 ---p 00000000 00:00 0 
7fa8001e1000-7fa8001e2000 rw-p 00000000 00:00 0 
7fa8001e2000-7fa8001ea000 r-xp 00000000 08:06 7999946                    /usr/lib/jvm/java-8-openjdk-amd64/jre/lib/amd64/libzip.so
7fa8001ea000-7fa8003e9000 ---p 00008000 08:06 7999946                    /usr/lib/jvm/java-8-openjdk-amd64/jre/lib/amd64/libzip.so
7fa8003e9000-7fa8003ea000 r--p 00007000 08:06 7999946                    /usr/lib/jvm/java-8-openjdk-amd64/jre/lib/amd64/libzip.so
7fa8003ea000-7fa8003eb000 rw-p 00008000 08:06 7999946                    /usr/lib/jvm/java-8-openjdk-amd64/jre/lib/amd64/libzip.so
7fa8003eb000-7fa8003f6000 r-xp 00000000 08:06 7082576                    /lib/x86_64-linux-gnu/libnss_files-2.23.so
7fa8003f6000-7fa8005f5000 ---p 0000b000 08:06 7082576                    /lib/x86_64-linux-gnu/libnss_files-2.23.so
7fa8005f5000-7fa8005f6000 r--p 0000a000 08:06 7082576                    /lib/x86_64-linux-gnu/libnss_files-2.23.so
7fa8005f6000-7fa8005f7000 rw-p 0000b000 08:06 7082576                    /lib/x86_64-linux-gnu/libnss_files-2.23.so
7fa8005f7000-7fa8005fd000 rw-p 00000000 00:00 0 
7fa8005fd000-7fa800608000 r-xp 00000000 08:06 7082608                    /lib/x86_64-linux-gnu/libnss_nis-2.23.so
7fa800608000-7fa800807000 ---p 0000b000 08:06 7082608                    /lib/x86_64-linux-gnu/libnss_nis-2.23.so
7fa800807000-7fa800808000 r--p 0000a000 08:06 7082608                    /lib/x86_64-linux-gnu/libnss_nis-2.23.so
7fa800808000-7fa800809000 rw-p 0000b000 08:06 7082608                    /lib/x86_64-linux-gnu/libnss_nis-2.23.so
7fa800809000-7fa80081f000 r-xp 00000000 08:06 7077894                    /lib/x86_64-linux-gnu/libnsl-2.23.so
7fa80081f000-7fa800a1e000 ---p 00016000 08:06 7077894                    /lib/x86_64-linux-gnu/libnsl-2.23.so
7fa800a1e000-7fa800a1f000 r--p 00015000 08:06 7077894                    /lib/x86_64-linux-gnu/libnsl-2.23.so
7fa800a1f000-7fa800a20000 rw-p 00016000 08:06 7077894                    /lib/x86_64-linux-gnu/libnsl-2.23.so
7fa800a20000-7fa800a22000 rw-p 00000000 00:00 0 
7fa800a22000-7fa800a2a000 r-xp 00000000 08:06 7083411                    /lib/x86_64-linux-gnu/libnss_compat-2.23.so
7fa800a2a000-7fa800c29000 ---p 00008000 08:06 7083411                    /lib/x86_64-linux-gnu/libnss_compat-2.23.so
7fa800c29000-7fa800c2a000 r--p 00007000 08:06 7083411                    /lib/x86_64-linux-gnu/libnss_compat-2.23.so
7fa800c2a000-7fa800c2b000 rw-p 00008000 08:06 7083411                    /lib/x86_64-linux-gnu/libnss_compat-2.23.so
7fa800c2b000-7fa800c35000 r-xp 00000000 08:06 7999936                    /usr/lib/jvm/java-8-openjdk-amd64/jre/lib/amd64/libinstrument.so
7fa800c35000-7fa800e34000 ---p 0000a000 08:06 7999936                    /usr/lib/jvm/java-8-openjdk-amd64/jre/lib/amd64/libinstrument.so
7fa800e34000-7fa800e35000 r--p 00009000 08:06 7999936                    /usr/lib/jvm/java-8-openjdk-amd64/jre/lib/amd64/libinstrument.so
7fa800e35000-7fa800e36000 rw-p 0000a000 08:06 7999936                    /usr/lib/jvm/java-8-openjdk-amd64/jre/lib/amd64/libinstrument.so
7fa800e36000-7fa800e63000 r-xp 00000000 08:06 7999929                    /usr/lib/jvm/java-8-openjdk-amd64/jre/lib/amd64/libjava.so
7fa800e63000-7fa801062000 ---p 0002d000 08:06 7999929                    /usr/lib/jvm/java-8-openjdk-amd64/jre/lib/amd64/libjava.so
7fa801062000-7fa801063000 r--p 0002c000 08:06 7999929                    /usr/lib/jvm/java-8-openjdk-amd64/jre/lib/amd64/libjava.so
7fa801063000-7fa801065000 rw-p 0002d000 08:06 7999929                    /usr/lib/jvm/java-8-openjdk-amd64/jre/lib/amd64/libjava.so
7fa801065000-7fa801074000 r-xp 00000000 08:06 7999944                    /usr/lib/jvm/java-8-openjdk-amd64/jre/lib/amd64/libverify.so
7fa801074000-7fa801273000 ---p 0000f000 08:06 7999944                    /usr/lib/jvm/java-8-openjdk-amd64/jre/lib/amd64/libverify.so
7fa801273000-7fa801275000 r--p 0000e000 08:06 7999944                    /usr/lib/jvm/java-8-openjdk-amd64/jre/lib/amd64/libverify.so
7fa801275000-7fa801276000 rw-p 00010000 08:06 7999944                    /usr/lib/jvm/java-8-openjdk-amd64/jre/lib/amd64/libverify.so
7fa801276000-7fa80127d000 r-xp 00000000 08:06 7083397                    /lib/x86_64-linux-gnu/librt-2.23.so
7fa80127d000-7fa80147c000 ---p 00007000 08:06 7083397                    /lib/x86_64-linux-gnu/librt-2.23.so
7fa80147c000-7fa80147d000 r--p 00006000 08:06 7083397                    /lib/x86_64-linux-gnu/librt-2.23.so
7fa80147d000-7fa80147e000 rw-p 00007000 08:06 7083397                    /lib/x86_64-linux-gnu/librt-2.23.so
7fa80147e000-7fa801494000 r-xp 00000000 08:06 7082318                    /lib/x86_64-linux-gnu/libgcc_s.so.1
7fa801494000-7fa801693000 ---p 00016000 08:06 7082318                    /lib/x86_64-linux-gnu/libgcc_s.so.1
7fa801693000-7fa801694000 rw-p 00015000 08:06 7082318                    /lib/x86_64-linux-gnu/libgcc_s.so.1
7fa801694000-7fa80179c000 r-xp 00000000 08:06 7083431                    /lib/x86_64-linux-gnu/libm-2.23.so
7fa80179c000-7fa80199b000 ---p 00108000 08:06 7083431                    /lib/x86_64-linux-gnu/libm-2.23.so
7fa80199b000-7fa80199c000 r--p 00107000 08:06 7083431                    /lib/x86_64-linux-gnu/libm-2.23.so
7fa80199c000-7fa80199d000 rw-p 00108000 08:06 7083431                    /lib/x86_64-linux-gnu/libm-2.23.so
7fa80199d000-7fa801b0f000 r-xp 00000000 08:06 7867785                    /usr/lib/x86_64-linux-gnu/libstdc++.so.6.0.21
7fa801b0f000-7fa801d0f000 ---p 00172000 08:06 7867785                    /usr/lib/x86_64-linux-gnu/libstdc++.so.6.0.21
7fa801d0f000-7fa801d19000 r--p 00172000 08:06 7867785                    /usr/lib/x86_64-linux-gnu/libstdc++.so.6.0.21
7fa801d19000-7fa801d1b000 rw-p 0017c000 08:06 7867785                    /usr/lib/x86_64-linux-gnu/libstdc++.so.6.0.21
7fa801d1b000-7fa801d1f000 rw-p 00000000 00:00 0 
7fa801d1f000-7fa802971000 r-xp 00000000 08:06 7999939                    /usr/lib/jvm/java-8-openjdk-amd64/jre/lib/amd64/server/libjvm.so
7fa802971000-7fa802b71000 ---p 00c52000 08:06 7999939                    /usr/lib/jvm/java-8-openjdk-amd64/jre/lib/amd64/server/libjvm.so
7fa802b71000-7fa802c04000 r--p 00c52000 08:06 7999939                    /usr/lib/jvm/java-8-openjdk-amd64/jre/lib/amd64/server/libjvm.so
7fa802c04000-7fa802c2d000 rw-p 00ce5000 08:06 7999939                    /usr/lib/jvm/java-8-openjdk-amd64/jre/lib/amd64/server/libjvm.so
7fa802c2d000-7fa802c5d000 rw-p 00000000 00:00 0 
7fa802c5d000-7fa802c75000 r-xp 00000000 08:06 7082604                    /lib/x86_64-linux-gnu/libpthread-2.23.so
7fa802c75000-7fa802e74000 ---p 00018000 08:06 7082604                    /lib/x86_64-linux-gnu/libpthread-2.23.so
7fa802e74000-7fa802e75000 r--p 00017000 08:06 7082604                    /lib/x86_64-linux-gnu/libpthread-2.23.so
7fa802e75000-7fa802e76000 rw-p 00018000 08:06 7082604                    /lib/x86_64-linux-gnu/libpthread-2.23.so
7fa802e76000-7fa802e7a000 rw-p 00000000 00:00 0 
7fa802e7a000-7fa802e7d000 r-xp 00000000 08:06 7083407                    /lib/x86_64-linux-gnu/libdl-2.23.so
7fa802e7d000-7fa80307c000 ---p 00003000 08:06 7083407                    /lib/x86_64-linux-gnu/libdl-2.23.so
7fa80307c000-7fa80307d000 r--p 00002000 08:06 7083407                    /lib/x86_64-linux-gnu/libdl-2.23.so
7fa80307d000-7fa80307e000 rw-p 00003000 08:06 7083407                    /lib/x86_64-linux-gnu/libdl-2.23.so
7fa80307e000-7fa803097000 r-xp 00000000 08:06 7078151                    /lib/x86_64-linux-gnu/libz.so.1.2.8
7fa803097000-7fa803296000 ---p 00019000 08:06 7078151                    /lib/x86_64-linux-gnu/libz.so.1.2.8
7fa803296000-7fa803297000 r--p 00018000 08:06 7078151                    /lib/x86_64-linux-gnu/libz.so.1.2.8
7fa803297000-7fa803298000 rw-p 00019000 08:06 7078151                    /lib/x86_64-linux-gnu/libz.so.1.2.8
7fa803298000-7fa803458000 r-xp 00000000 08:06 7083444                    /lib/x86_64-linux-gnu/libc-2.23.so
7fa803458000-7fa803658000 ---p 001c0000 08:06 7083444                    /lib/x86_64-linux-gnu/libc-2.23.so
7fa803658000-7fa80365c000 r--p 001c0000 08:06 7083444                    /lib/x86_64-linux-gnu/libc-2.23.so
7fa80365c000-7fa80365e000 rw-p 001c4000 08:06 7083444                    /lib/x86_64-linux-gnu/libc-2.23.so
7fa80365e000-7fa803662000 rw-p 00000000 00:00 0 
7fa803662000-7fa80366f000 r-xp 00000000 08:06 7999942                    /usr/lib/jvm/java-8-openjdk-amd64/jre/lib/amd64/jli/libjli.so
7fa80366f000-7fa80386f000 ---p 0000d000 08:06 7999942                    /usr/lib/jvm/java-8-openjdk-amd64/jre/lib/amd64/jli/libjli.so
7fa80386f000-7fa803870000 r--p 0000d000 08:06 7999942                    /usr/lib/jvm/java-8-openjdk-amd64/jre/lib/amd64/jli/libjli.so
7fa803870000-7fa803871000 rw-p 0000e000 08:06 7999942                    /usr/lib/jvm/java-8-openjdk-amd64/jre/lib/amd64/jli/libjli.so
7fa803871000-7fa803897000 r-xp 00000000 08:06 7077982                    /lib/x86_64-linux-gnu/ld-2.23.so
7fa803897000-7fa803968000 rw-p 00000000 00:00 0 
7fa803968000-7fa80396b000 ---p 00000000 00:00 0 
7fa80396b000-7fa803a6e000 rw-p 00000000 00:00 0 
7fa803a6e000-7fa803a6f000 r--s 00000000 08:06 7999961                    /usr/lib/jvm/java-8-openjdk-amd64/jre/lib/management-agent.jar
7fa803a6f000-7fa803a71000 r--s 00001000 08:06 8128826                    /usr/lib/jvm/java-8-openjdk-amd64/jre/lib/ext/dnsns.jar
7fa803a71000-7fa803a75000 r--s 00037000 08:06 8128824                    /usr/lib/jvm/java-8-openjdk-amd64/jre/lib/ext/sunpkcs11.jar
7fa803a75000-7fa803a76000 r--s 00010000 08:06 8128785                    /usr/lib/jvm/java-8-openjdk-amd64/jre/lib/ext/zipfs.jar
7fa803a76000-7fa803a77000 r--s 0000a000 08:06 8128825                    /usr/lib/jvm/java-8-openjdk-amd64/jre/lib/ext/jaccess.jar
7fa803a77000-7fa803a8a000 rw-p 00000000 00:00 0 
7fa803a8a000-7fa803a92000 rw-s 00000000 08:06 137401                     /tmp/hsperfdata_brunoj/8952
7fa803a92000-7fa803a93000 rw-p 00000000 00:00 0 
7fa803a93000-7fa803a94000 ---p 00000000 00:00 0 
7fa803a94000-7fa803a96000 rw-p 00000000 00:00 0 
7fa803a96000-7fa803a97000 r--p 00025000 08:06 7077982                    /lib/x86_64-linux-gnu/ld-2.23.so
7fa803a97000-7fa803a98000 rw-p 00026000 08:06 7077982                    /lib/x86_64-linux-gnu/ld-2.23.so
7fa803a98000-7fa803a99000 rw-p 00000000 00:00 0 
7fffd036e000-7fffd038f000 rw-p 00000000 00:00 0                          [stack]
7fffd03c4000-7fffd03c6000 r--p 00000000 00:00 0                          [vvar]
7fffd03c6000-7fffd03c8000 r-xp 00000000 00:00 0                          [vdso]
ffffffffff600000-ffffffffff601000 r-xp 00000000 00:00 0                  [vsyscall]

VM Arguments:
jvm_args: -javaagent:/home/brunoj/.local/share/JetBrains/Toolbox/apps/IDEA-C/ch-0/172.4343.14/lib/idea_rt.jar=40974:/home/brunoj/.local/share/JetBrains/Toolbox/apps/IDEA-C/ch-0/172.4343.14/bin -Dfile.encoding=UTF-8 
java_command: HelloWorld
java_class_path (initial): /usr/lib/jvm/java-1.8.0-openjdk-amd64/jre/lib/charsets.jar:/usr/lib/jvm/java-1.8.0-openjdk-amd64/jre/lib/ext/cldrdata.jar:/usr/lib/jvm/java-1.8.0-openjdk-amd64/jre/lib/ext/dnsns.jar:/usr/lib/jvm/java-1.8.0-openjdk-amd64/jre/lib/ext/icedtea-sound.jar:/usr/lib/jvm/java-1.8.0-openjdk-amd64/jre/lib/ext/jaccess.jar:/usr/lib/jvm/java-1.8.0-openjdk-amd64/jre/lib/ext/localedata.jar:/usr/lib/jvm/java-1.8.0-openjdk-amd64/jre/lib/ext/nashorn.jar:/usr/lib/jvm/java-1.8.0-openjdk-amd64/jre/lib/ext/sunec.jar:/usr/lib/jvm/java-1.8.0-openjdk-amd64/jre/lib/ext/sunjce_provider.jar:/usr/lib/jvm/java-1.8.0-openjdk-amd64/jre/lib/ext/sunpkcs11.jar:/usr/lib/jvm/java-1.8.0-openjdk-amd64/jre/lib/ext/zipfs.jar:/usr/lib/jvm/java-1.8.0-openjdk-amd64/jre/lib/jce.jar:/usr/lib/jvm/java-1.8.0-openjdk-amd64/jre/lib/jsse.jar:/usr/lib/jvm/java-1.8.0-openjdk-amd64/jre/lib/management-agent.jar:/usr/lib/jvm/java-1.8.0-openjdk-amd64/jre/lib/resources.jar:/usr/lib/jvm/java-1.8.0-openjdk-amd64/jre/lib/rt.jar:/home/brunoj/Desktop/PWR/semestr7/JNI/out/production/JNI:/home/brunoj/.local/share/JetBrains/Toolbox/apps/IDEA-C/ch-0/172.4343.14/lib/idea_rt.jar
Launcher Type: SUN_STANDARD

Environment Variables:
JAVA_HOME=/usr/lib/jvm/java-8-oracle
PATH=/usr/local/sbin:/usr/local/bin:/usr/sbin:/usr/bin:/sbin:/bin:/usr/games:/usr/local/games:/snap/bin:/usr/lib/jvm/java-8-oracle/bin:/usr/lib/jvm/java-8-oracle/db/bin:/usr/lib/jvm/java-8-oracle/jre/bin
LD_LIBRARY_PATH=/home/brunoj/.local/share/JetBrains/Toolbox/apps/IDEA-C/ch-0/172.4343.14/bin:
SHELL=/bin/bash
DISPLAY=:0

Signal Handlers:
SIGSEGV: [libjvm.so+0xa69040], sa_mask[0]=11111111011111111101111111111110, sa_flags=SA_RESTART|SA_SIGINFO
SIGBUS: [libjvm.so+0xa69040], sa_mask[0]=11111111011111111101111111111110, sa_flags=SA_RESTART|SA_SIGINFO
SIGFPE: [libjvm.so+0x8b2170], sa_mask[0]=11111111011111111101111111111110, sa_flags=SA_RESTART|SA_SIGINFO
SIGPIPE: [libjvm.so+0x8b2170], sa_mask[0]=11111111011111111101111111111110, sa_flags=SA_RESTART|SA_SIGINFO
SIGXFSZ: [libjvm.so+0x8b2170], sa_mask[0]=11111111011111111101111111111110, sa_flags=SA_RESTART|SA_SIGINFO
SIGILL: [libjvm.so+0x8b2170], sa_mask[0]=11111111011111111101111111111110, sa_flags=SA_RESTART|SA_SIGINFO
SIGUSR1: SIG_DFL, sa_mask[0]=00000000000000000000000000000000, sa_flags=none
SIGUSR2: [libjvm.so+0x8b2020], sa_mask[0]=00100000000000000000000000000000, sa_flags=SA_RESTART|SA_SIGINFO
SIGHUP: [libjvm.so+0x8b24f0], sa_mask[0]=11111111011111111101111111111110, sa_flags=SA_RESTART|SA_SIGINFO
SIGINT: [libjvm.so+0x8b24f0], sa_mask[0]=11111111011111111101111111111110, sa_flags=SA_RESTART|SA_SIGINFO
SIGTERM: [libjvm.so+0x8b24f0], sa_mask[0]=11111111011111111101111111111110, sa_flags=SA_RESTART|SA_SIGINFO
SIGQUIT: [libjvm.so+0x8b24f0], sa_mask[0]=11111111011111111101111111111110, sa_flags=SA_RESTART|SA_SIGINFO


---------------  S Y S T E M  ---------------

OS:DISTRIB_ID=Ubuntu
DISTRIB_RELEASE=16.04
DISTRIB_CODENAME=xenial
DISTRIB_DESCRIPTION="Ubuntu 16.04.3 LTS"

uname:Linux 4.4.0-98-generic #121-Ubuntu SMP Tue Oct 10 14:24:03 UTC 2017 x86_64
libc:glibc 2.23 NPTL 2.23 
rlimit: STACK 8192k, CORE 0k, NPROC 14822, NOFILE 1048576, AS infinity
load average:3,47 2,83 2,02

/proc/meminfo:
MemTotal:        3835384 kB
MemFree:          229104 kB
MemAvailable:     294340 kB
Buffers:            8316 kB
Cached:           436856 kB
SwapCached:         5128 kB
Active:          2373044 kB
Inactive:        1022860 kB
Active(anon):    2273200 kB
Inactive(anon):   882132 kB
Active(file):      99844 kB
Inactive(file):   140728 kB
Unevictable:         160 kB
Mlocked:             160 kB
SwapTotal:       3979260 kB
SwapFree:        3919056 kB
Dirty:             13484 kB
Writeback:             0 kB
AnonPages:       2945812 kB
Mapped:           198324 kB
Shmem:            204680 kB
Slab:              96744 kB
SReclaimable:      57168 kB
SUnreclaim:        39576 kB
KernelStack:       13952 kB
PageTables:        55508 kB
NFS_Unstable:          0 kB
Bounce:                0 kB
WritebackTmp:          0 kB
CommitLimit:     5896952 kB
Committed_AS:   10868176 kB
VmallocTotal:   34359738367 kB
VmallocUsed:           0 kB
VmallocChunk:          0 kB
HardwareCorrupted:     0 kB
AnonHugePages:    864256 kB
CmaTotal:              0 kB
CmaFree:               0 kB
HugePages_Total:       0
HugePages_Free:        0
HugePages_Rsvd:        0
HugePages_Surp:        0
Hugepagesize:       2048 kB
DirectMap4k:      127032 kB
DirectMap2M:     3854336 kB


CPU:total 4 (initial active 4) (2 cores per cpu, 2 threads per core) family 6 model 37 stepping 5, cmov, cx8, fxsr, mmx, sse, sse2, sse3, ssse3, sse4.1, sse4.2, popcnt, aes, clmul, ht, tsc, tscinvbit

/proc/cpuinfo:
processor	: 0
vendor_id	: GenuineIntel
cpu family	: 6
model		: 37
model name	: Intel(R) Core(TM) i7 CPU       M 620  @ 2.67GHz
stepping	: 5
microcode	: 0x2
cpu MHz		: 1199.000
cache size	: 4096 KB
physical id	: 0
siblings	: 4
core id		: 0
cpu cores	: 2
apicid		: 0
initial apicid	: 0
fpu		: yes
fpu_exception	: yes
cpuid level	: 11
wp		: yes
flags		: fpu vme de pse tsc msr pae mce cx8 apic sep mtrr pge mca cmov pat pse36 clflush dts acpi mmx fxsr sse sse2 ss ht tm pbe syscall nx rdtscp lm constant_tsc arch_perfmon pebs bts rep_good nopl xtopology nonstop_tsc aperfmperf pni pclmulqdq dtes64 monitor ds_cpl vmx smx est tm2 ssse3 cx16 xtpr pdcm pcid sse4_1 sse4_2 popcnt aes lahf_lm tpr_shadow vnmi flexpriority ept vpid dtherm ida arat
bugs		:
bogomips	: 5319.54
clflush size	: 64
cache_alignment	: 64
address sizes	: 36 bits physical, 48 bits virtual
power management:

processor	: 1
vendor_id	: GenuineIntel
cpu family	: 6
model		: 37
model name	: Intel(R) Core(TM) i7 CPU       M 620  @ 2.67GHz
stepping	: 5
microcode	: 0x2
cpu MHz		: 2667.000
cache size	: 4096 KB
physical id	: 0
siblings	: 4
core id		: 0
cpu cores	: 2
apicid		: 1
initial apicid	: 1
fpu		: yes
fpu_exception	: yes
cpuid level	: 11
wp		: yes
flags		: fpu vme de pse tsc msr pae mce cx8 apic sep mtrr pge mca cmov pat pse36 clflush dts acpi mmx fxsr sse sse2 ss ht tm pbe syscall nx rdtscp lm constant_tsc arch_perfmon pebs bts rep_good nopl xtopology nonstop_tsc aperfmperf pni pclmulqdq dtes64 monitor ds_cpl vmx smx est tm2 ssse3 cx16 xtpr pdcm pcid sse4_1 sse4_2 popcnt aes lahf_lm tpr_shadow vnmi flexpriority ept vpid dtherm ida arat
bugs		:
bogomips	: 5319.54
clflush size	: 64
cache_alignment	: 64
address sizes	: 36 bits physical, 48 bits virtual
power management:

processor	: 2
vendor_id	: GenuineIntel
cpu family	: 6
model		: 37
model name	: Intel(R) Core(TM) i7 CPU       M 620  @ 2.67GHz
stepping	: 5
microcode	: 0x2
cpu MHz		: 2667.000
cache size	: 4096 KB
physical id	: 0
siblings	: 4
core id		: 2
cpu cores	: 2
apicid		: 4
initial apicid	: 4
fpu		: yes
fpu_exception	: yes
cpuid level	: 11
wp		: yes
flags		: fpu vme de pse tsc msr pae mce cx8 apic sep mtrr pge mca cmov pat pse36 clflush dts acpi mmx fxsr sse sse2 ss ht tm pbe syscall nx rdtscp lm constant_tsc arch_perfmon pebs bts rep_good nopl xtopology nonstop_tsc aperfmperf pni pclmulqdq dtes64 monitor ds_cpl vmx smx est tm2 ssse3 cx16 xtpr pdcm pcid sse4_1 sse4_2 popcnt aes lahf_lm tpr_shadow vnmi flexpriority ept vpid dtherm ida arat
bugs		:
bogomips	: 5319.54
clflush size	: 64
cache_alignment	: 64
address sizes	: 36 bits physical, 48 bits virtual
power management:

processor	: 3
vendor_id	: GenuineIntel
cpu family	: 6
model		: 37
model name	: Intel(R) Core(TM) i7 CPU       M 620  @ 2.67GHz
stepping	: 5
microcode	: 0x2
cpu MHz		: 2667.000
cache size	: 4096 KB
physical id	: 0
siblings	: 4
core id		: 2
cpu cores	: 2
apicid		: 5
initial apicid	: 5
fpu		: yes
fpu_exception	: yes
cpuid level	: 11
wp		: yes
flags		: fpu vme de pse tsc msr pae mce cx8 apic sep mtrr pge mca cmov pat pse36 clflush dts acpi mmx fxsr sse sse2 ss ht tm pbe syscall nx rdtscp lm constant_tsc arch_perfmon pebs bts rep_good nopl xtopology nonstop_tsc aperfmperf pni pclmulqdq dtes64 monitor ds_cpl vmx smx est tm2 ssse3 cx16 xtpr pdcm pcid sse4_1 sse4_2 popcnt aes lahf_lm tpr_shadow vnmi flexpriority ept vpid dtherm ida arat
bugs		:
bogomips	: 5319.54
clflush size	: 64
cache_alignment	: 64
address sizes	: 36 bits physical, 48 bits virtual
power management:



Memory: 4k page, physical 3835384k(229104k free), swap 3979260k(3919056k free)

vm_info: OpenJDK 64-Bit Server VM (25.151-b12) for linux-amd64 JRE (1.8.0_151-8u151-b12-0ubuntu0.16.04.2-b12), built on Oct 27 2017 21:59:02 by "buildd" with gcc 5.4.0 20160609

time: Fri Nov 10 21:06:49 2017
elapsed time: 14 seconds (0d 0h 0m 14s)

